First Name (Parent A) ,Last Name (Parent A),Email (Parent A),Language Parent A (en/zh-CN/es)  en= English; zh-CN = Simple Chinese; es= Spanish,First Name (Parent B) ,Last Name (Parent B),Email (Parent B),Language Parent B (en/zh-CN/es)  en= English; zh-CN = Simple Chinese; es= Spanish
,,,,,,,
Kim,S,kims@gmail.com,en,,,,
Tracie,G,tracieg@gmail.com,en,,,,
Maria,A,mariaa@gmail.com,en,,,,
Guido,M,guidom@gmail.com,en,,,,
